{
    "id": "org.gnome.design.Emblem.Devel",
    "runtime": "org.gnome.Platform",
    "runtime-version": "master",
    "sdk": "org.gnome.Sdk",
    "sdk-extensions": [
        "org.freedesktop.Sdk.Extension.rust-stable",
        "org.freedesktop.Sdk.Extension.llvm18"
    ],
    "command": "emblem",
    "finish-args" : [
        "--socket=fallback-x11",
        "--socket=wayland",
        "--device=dri",
        "--share=ipc",
        "--env=RUST_LOG=emblem=debug",
        "--env=RUST_BACKTRACE=1"
    ],
    "build-options" : {
        "append-path": "/usr/lib/sdk/rust-stable/bin:/usr/lib/sdk/llvm18/bin",
        "build-args" : [
            "--share=network"
        ],
        "env": {
            "CARGO_TARGET_X86_64_UNKNOWN_LINUX_GNU_LINKER": "clang",
            "CARGO_TARGET_X86_64_UNKNOWN_LINUX_GNU_RUSTFLAGS": "-C link-arg=-fuse-ld=/usr/lib/sdk/rust-stable/bin/mold",
            "CARGO_TARGET_AARCH64_UNKNOWN_LINUX_GNU_LINKER": "clang",
            "CARGO_TARGET_AARCH64_UNKNOWN_LINUX_GNU_RUSTFLAGS": "-C link-arg=-fuse-ld=/usr/lib/sdk/rust-stable/bin/mold"
        },
        "test-args": [
            "--socket=x11",
            "--share=network"
        ]
    },
    "modules": [
        {
            "name": "emblem",
            "buildsystem": "meson",
            "run-tests": true,
            "config-opts": ["-Dprofile=development"],
            "sources": [
                {
                    "type": "dir",
                    "path": "../"
                }
            ]
        }
    ]
}
